7000,1.72e-05,-1.1e-06
7001,1.71e-05,-1.1e-06
7002,1.68e-05,-1e-06
7003,1.63e-05,-1e-06
7004,1.6e-05,-1e-06
7005,1.58e-05,-1e-06
7006,1.58e-05,-1e-06
7007,1.59e-05,-1e-06
7008,1.6e-05,-1e-06
7009,1.61e-05,-1e-06
7010,1.62e-05,-1e-06
7011,1.63e-05,-1e-06
7012,1.64e-05,-1e-06
7013,1.65e-05,-1e-06
7014,1.66e-05,-1e-06
7015,1.67e-05,-1.1e-06
7016,1.68e-05,-1.1e-06
7017,1.69e-05,-1.1e-06
7018,1.7e-05,-1.1e-06
7019,1.71e-05,-1.1e-06
7020,1.72e-05,-1.1e-06
7021,1.73e-05,-1.1e-06
7022,1.75e-05,-1.1e-06
7023,1.76e-05,-1.1e-06
7024,1.76e-05,-1.2e-06
7025,1.77e-05,-1.2e-06
7026,1.79e-05,-1.2e-06
7027,1.8e-05,-1.2e-06
7028,1.81e-05,-1.2e-06
7029,1.83e-05,-1.2e-06
7030,1.84e-05,-1.2e-06
7031,1.85e-05,-1.3e-06
7032,1.86e-05,-1.3e-06
7033,1.88e-05,-1.3e-06
7034,1.89e-05,-1.4e-06
7035,1.9e-05,-1.4e-06
7036,1.92e-05,-1.4e-06
7037,1.93e-05,-1.4e-06
7038,1.95e-05,-1.4e-06
7039,1.96e-05,-1.4e-06
7040,1.98e-05,-1.5e-06
7041,1.99e-05,-1.5e-06
7042,2.01e-05,-1.5e-06
7043,2.02e-05,-1.5e-06
7044,2.04e-05,-1.5e-06
7045,2.06e-05,-1.6e-06
7046,2.07e-05,-1.6e-06
7047,2.09e-05,-1.6e-06
7048,2.1e-05,-1.6e-06
7049,2.12e-05,-1.6e-06
7050,2.14e-05,-1.7e-06
7051,2.16e-05,-1.7e-06
7052,2.18e-05,-1.7e-06
7053,2.2e-05,-1.7e-06
7054,2.22e-05,-1.8e-06
7055,2.24e-05,-1.8e-06
7056,2.26e-05,-1.9e-06
7057,2.28e-05,-1.9e-06
7058,2.3e-05,-1.9e-06
7059,2.32e-05,-1.9e-06
7060,2.34e-05,-2e-06
7061,2.36e-05,-2e-06
7062,2.39e-05,-2e-06
7063,2.41e-05,-2.1e-06
7064,2.43e-05,-2.1e-06
7065,2.45e-05,-2.1e-06
7066,2.48e-05,-2.2e-06
7067,2.5e-05,-2.3e-06
7068,2.53e-05,-2.3e-06
7069,2.56e-05,-2.4e-06
7070,2.58e-05,-2.4e-06
7071,2.61e-05,-2.5e-06
7072,2.64e-05,-2.5e-06
7073,2.66e-05,-2.5e-06
7074,2.69e-05,-2.6e-06
7075,2.72e-05,-2.7e-06
7076,2.75e-05,-2.7e-06
7077,2.78e-05,-2.8e-06
7078,2.82e-05,-2.8e-06
7079,2.85e-05,-2.9e-06
7080,2.88e-05,-3e-06
7081,2.92e-05,-3.1e-06
7082,2.96e-05,-3.2e-06
7083,2.99e-05,-3.2e-06
7084,3.03e-05,-3.3e-06
7085,3.06e-05,-3.4e-06
7086,3.11e-05,-3.5e-06
7087,3.15e-05,-3.6e-06
7088,3.18e-05,-3.7e-06
7089,3.23e-05,-3.8e-06
7090,3.28e-05,-3.9e-06
7091,3.32e-05,-4e-06
7092,3.37e-05,-4.1e-06
7093,3.41e-05,-4.2e-06
7094,3.46e-05,-4.4e-06
7095,3.51e-05,-4.5e-06
7096,3.56e-05,-4.6e-06
7097,3.62e-05,-4.8e-06
7098,3.68e-05,-5e-06
7099,3.73e-05,-5.1e-06
7100,3.8e-05,-5.3e-06
7101,3.86e-05,-5.5e-06
7102,3.92e-05,-5.7e-06
7103,3.98e-05,-5.8e-06
7104,4.05e-05,-6.1e-06
7105,4.12e-05,-6.3e-06
7106,4.19e-05,-6.5e-06
7107,4.27e-05,-6.7e-06
7108,4.35e-05,-7e-06
7109,4.43e-05,-7.3e-06
7110,4.52e-05,-7.6e-06
7111,4.61e-05,-8e-06
7112,4.7e-05,-8.3e-06
7113,4.8e-05,-8.7e-06
7114,4.9e-05,-9e-06
7115,5e-05,-9.5e-06
7116,5.11e-05,-9.9e-06
7117,5.22e-05,-1.04e-05
7118,5.34e-05,-1.09e-05
7119,5.46e-05,-1.14e-05
7120,5.59e-05,-1.2e-05
7121,5.72e-05,-1.26e-05
7122,5.86e-05,-1.33e-05
7123,6.01e-05,-1.4e-05
7124,6.17e-05,-1.48e-05
7125,6.33e-05,-1.57e-05
7126,6.51e-05,-1.67e-05
7127,6.69e-05,-1.77e-05
7128,6.88e-05,-1.88e-05
7129,7.08e-05,-2.01e-05
7130,7.29e-05,-2.14e-05
7131,7.52e-05,-2.28e-05
7132,7.77e-05,-2.45e-05
7133,8.04e-05,-2.64e-05
7134,8.31e-05,-2.84e-05
7135,8.61e-05,-3.08e-05
7136,8.93e-05,-3.34e-05
7137,9.26e-05,-3.63e-05
7138,9.6e-05,-3.95e-05
7139,9.97e-05,-4.33e-05
7140,0.0001036,-4.79e-05
7141,0.0001077,-5.31e-05
7142,0.0001118,-5.92e-05
7143,0.0001159,-6.62e-05
7144,0.00012,-7.44e-05
7145,0.0001237,-8.38e-05
7146,0.0001266,-9.44e-05
7147,0.0001276,-0.0001055
7148,0.0001272,-0.0001188
7149,0.0001248,-0.000134
7150,0.0001222,-0.000153
7151,0.0001164,-0.0001736
7152,0.0001069,-0.0001939
7153,9.2e-05,-0.000213
7154,7.19e-05,-0.0002295
7155,4.77e-05,-0.0002422
7156,1.9e-05,-0.0002496
7157,-1.12e-05,-0.0002504
7158,-3.91e-05,-0.0002447
7159,-6.46e-05,-0.0002333
7160,-8.58e-05,-0.0002176
7161,-0.0001023,-0.0001991
7162,-0.000114,-0.0001796
7163,-0.0001214,-0.0001603
7164,-0.0001253,-0.0001421
7165,-0.0001264,-0.0001255
7166,-0.0001256,-0.0001108
7167,-0.0001233,-9.8e-05
7168,-0.0001201,-8.71e-05
7169,-0.0001165,-7.74e-05
7170,-0.0001125,-6.92e-05
7171,-0.0001086,-6.2e-05
7172,-0.0001046,-5.58e-05
7173,-0.0001008,-5.04e-05
7174,-9.72e-05,-4.56e-05
7175,-9.36e-05,-4.15e-05
7176,-9.01e-05,-3.79e-05
7177,-8.66e-05,-3.45e-05
7178,-8.34e-05,-3.18e-05
7179,-8.04e-05,-2.94e-05
7180,-7.75e-05,-2.71e-05
7181,-7.5e-05,-2.52e-05
7182,-7.26e-05,-2.34e-05
7183,-7.02e-05,-2.18e-05
7184,-6.81e-05,-2.04e-05
7185,-6.6e-05,-1.91e-05
7186,-6.4e-05,-1.79e-05
7187,-6.21e-05,-1.68e-05
7188,-6.03e-05,-1.58e-05
7189,-5.86e-05,-1.48e-05
7190,-5.7e-05,-1.39e-05
7191,-5.54e-05,-1.31e-05
7192,-5.4e-05,-1.25e-05
7193,-5.25e-05,-1.18e-05
7194,-5.12e-05,-1.12e-05
7195,-4.99e-05,-1.07e-05
7196,-4.87e-05,-1.02e-05
7197,-4.75e-05,-9.7e-06
7198,-4.64e-05,-9.3e-06
7199,-4.53e-05,-8.8e-06
7200,-4.42e-05,-8.4e-06
7201,-4.33e-05,-8e-06
7202,-4.23e-05,-7.6e-06
7203,-4.14e-05,-7.3e-06
7204,-4.05e-05,-7e-06
7205,-3.97e-05,-6.7e-06
7206,-3.89e-05,-6.5e-06
7207,-3.81e-05,-6.2e-06
7208,-3.74e-05,-6e-06
7209,-3.67e-05,-5.8e-06
7210,-3.59e-05,-5.6e-06
7211,-3.53e-05,-5.4e-06
7212,-3.46e-05,-5.2e-06
7213,-3.4e-05,-5e-06
7214,-3.34e-05,-4.9e-06
7215,-3.28e-05,-4.7e-06
7216,-3.22e-05,-4.5e-06
7217,-3.17e-05,-4.4e-06
7218,-3.12e-05,-4.2e-06
7219,-3.07e-05,-4.1e-06
7220,-3.02e-05,-4e-06
7221,-2.96e-05,-3.9e-06
7222,-2.92e-05,-3.7e-06
7223,-2.87e-05,-3.6e-06
7224,-2.82e-05,-3.5e-06
7225,-2.78e-05,-3.4e-06
7226,-2.74e-05,-3.3e-06
7227,-2.7e-05,-3.2e-06
7228,-2.66e-05,-3.2e-06
7229,-2.62e-05,-3.1e-06
7230,-2.58e-05,-2.9e-06
7231,-2.54e-05,-2.9e-06
7232,-2.51e-05,-2.8e-06
7233,-2.47e-05,-2.8e-06
7234,-2.44e-05,-2.7e-06
7235,-2.4e-05,-2.7e-06
7236,-2.37e-05,-2.6e-06
7237,-2.34e-05,-2.5e-06
7238,-2.31e-05,-2.5e-06
7239,-2.28e-05,-2.4e-06
7240,-2.24e-05,-2.3e-06
7241,-2.22e-05,-2.3e-06
7242,-2.19e-05,-2.3e-06
7243,-2.16e-05,-2.2e-06
7244,-2.14e-05,-2.1e-06
7245,-2.11e-05,-2.1e-06
7246,-2.09e-05,-2.1e-06
7247,-2.06e-05,-2e-06
7248,-2.03e-05,-2e-06
7249,-2.01e-05,-1.9e-06
7250,-1.98e-05,-1.9e-06
7251,-1.96e-05,-1.9e-06
7252,-1.94e-05,-1.8e-06
7253,-1.92e-05,-1.8e-06
7254,-1.9e-05,-1.8e-06
7255,-1.88e-05,-1.7e-06
7256,-1.86e-05,-1.6e-06
7257,-1.84e-05,-1.6e-06
7258,-1.82e-05,-1.6e-06
7259,-1.8e-05,-1.6e-06
7260,-1.78e-05,-1.6e-06
7261,-1.76e-05,-1.6e-06
7262,-1.74e-05,-1.5e-06
7263,-1.72e-05,-1.5e-06
7264,-1.7e-05,-1.5e-06
7265,-1.68e-05,-1.4e-06
7266,-1.67e-05,-1.4e-06
7267,-1.65e-05,-1.4e-06
7268,-1.63e-05,-1.4e-06
7269,-1.62e-05,-1.4e-06
7270,-1.6e-05,-1.3e-06
7271,-1.59e-05,-1.3e-06
7272,-1.57e-05,-1.2e-06
7273,-1.56e-05,-1.2e-06
7274,-1.54e-05,-1.2e-06
7275,-1.52e-05,-1.2e-06
7276,-1.51e-05,-1.2e-06
7277,-1.5e-05,-1.2e-06
7278,-1.48e-05,-1.2e-06
7279,-1.47e-05,-1.2e-06
7280,-1.45e-05,-1.1e-06
7281,-1.44e-05,-1.1e-06
7282,-1.43e-05,-1.1e-06
7283,-1.42e-05,-1.1e-06
7284,-1.41e-05,-1.1e-06
7285,-1.39e-05,-1.1e-06
7286,-1.38e-05,-1e-06
7287,-1.37e-05,-1e-06
7288,-1.36e-05,-1e-06
7289,-1.35e-05,-1e-06
7290,-1.33e-05,-1e-06
7291,-1.31e-05,-1e-06
7292,-1.3e-05,-1e-06
7293,-1.29e-05,-1.1e-06
7294,-1.26e-05,-1.3e-06
7295,-1.24e-05,-1.5e-06
7296,-1.23e-05,-1.5e-06
7297,-1.23e-05,-1.2e-06
7298,-1.24e-05,-9e-07
7299,-1.24e-05,-7e-07
